 01 PIN4 PWM    
 02 PIN0 RX0  COMMUNICATION
 03 PIN1 TX0  COMMUNICATION
 04
 05 PIN5 PWM    
 06 PIN2 PWM
 07 PIN3 PWM
 08
 09
 10 VCC
 11 GND
 12 RX2        GPS_RX
 13 TX2        GPS_TX
 14
 15 PIN6 PWM     
 16 PIN7 PWM     
 17 PIN8 PWM     
 18 PIN9 PWM   DEW_2
 19 PIN53 SS   RA_HOME
 20 PIN52 SCK  PROGRAMMING  DEC_HOME
 21 PIN51 MOSI PROGRAMMING
 22 PIN50 MISO PROGRAMMING
 23 PIN10 PWM  DEW_1
 24 PIN11 PWM
 25 PIN12 PWM
 26 PIN13 PWM
 27
 28
 29
 30 Reset
 31 VCC
 32 GND
 33 XTAL
 34 XTAL
 35 PIN49     FOCUS_DIAG
 36 PIN48     AZ_DIR
 37 PIN47     AZ_DIAG
 38 PIN46 PWM AZ_STEP
 39 PIN45 PWM DEC_DIAG
 40 PIN44 PWM DISPLAY_PIN_9
 41 PIN43     RA_DIAG
 42 PIN42     DISPLAY_PIN_6
 43 PIN21 SCL I2C
 44 PIN20 SDA I2C
 45 PIN19 RX1 DEBUG RX   
 46 PIN18 TX1 DEBUG TX
 47
 48
 49
 50 PIN38    RA_ENABLE
 51 PIN41    FOCUS_RX
 52 PIN40    DISPLAY_PIN_5
 53 PIN37    ALT_RX
 54 PIN36    FOCUS_STEP
 55 PIN35    ALT_TX
 56 PIN34    FOCUS_DIR
 57 PIN33    AZ_RX
 58 PIN32    ALT_DIAG
 59 PIN31    AZ_TX
 60 PIN30    FOCUS_ENABLE
 61 VCC
 62 GND
 63 PIN15 RX3       
 64 PIN14 TX3    
 65
 66
 67
 68
 69
 70 PIN39    FOCUS_TX
 71 PIN29    DEC_RX
 72 PIN28    ALT_DIR
 73 PIN27    DEC_TX
 74 PIN26    ALT_STEP
 75 PIN25    RA_RX
 76 PIN24    ALT_ENABLE
 77 PIN23    RA_TX
 78 PIN22        
 79
 80 VCC
 81 GND
 82 APIN15
 83 APIN14
 84 APIN13
 85 APIN12
 86 APIN11   DISPLAY_SENSOR
 87 APIN10   DISPLAY_PIN_8
 88 APIN9    DISPLAY_PIN_4
 89 APIN8    AZ_ENABLE
 90 APIN7    DEC_DIR
 91 APIN6    DEC_STEP
 92 APIN5    DISPLAY_PIN_7
 93 APIN4
 94 APIN3
 95 APIN2    DEC_ENABLE
 96 APIN1    RA_DIR
 97 APIN0    RA_STEP       
 98 Aref  <- VCC
 99 GND
 100 AVCC <- VCC
